{"_type":"export","__export_format":4,"__export_date":"2021-01-25T04:43:38.552Z","__export_source":"insomnia.desktop.app:v2020.5.2","resources":[{"_id":"req_0053f766b0ad46628d162d4116c57f61","parentId":"fld_7f64bd90a38b40599892e1bf47045de6","modified":1611549507655,"created":1611432381059,"url":"{{ _.api_url }}/characters","name":"Get Characters","description":"  Returns json data with every single character on the database.\n  \n  The JSON will include meta information such as total, current_page, last_page, and more. The result records are available via the data key in the JSON array. Here is an example of the JSON:\n```json\n{\n   \"total\": 50,\n   \"per_page\": 15,\n   \"current_page\": 1,\n   \"last_page\": 4,\n   \"first_page_url\": \"https://dextra.com.br?page=1\",\n   \"last_page_url\": \"https://dextra.com.br?page=4\",\n   \"next_page_url\": \"https://dextra.com.br?page=2\",\n   \"prev_page_url\": null,\n   \"path\": \"https://dextra.com.br\",\n   \"from\": 1,\n   \"to\": 15,\n   \"data\":[\n        {\n            // Record...\n        },\n        {\n            // Record...\n        }\n   ]\n}\n```\n\n* **URL**\n\n  /characters\n\n* **Method:**\n\n  `GET`\n  \n*  **URL Params**\n\n   **Optional:**\n \n   `house=[uuid]` - Filters characters by house\n\n* **Data Params**\n\n  None\n\n* **Success Response:**\n\n  * **Code:** 200\n \n* **Error Response:**\n\n  * **Code:** 422 Unprocessable Entity -\n  If the provided house query string does not exist.\n * **Standard Error Response:**\nhttps://jsonapi.org/examples/#error-objects-invalid-query-parameters","method":"GET","body":{},"parameters":[],"headers":[{"name":"Accept","value":"application/json"},{"name":"Content-Type","value":"application/json"}],"authentication":{},"metaSortKey":-1611432425496.5,"isPrivate":false,"settingStoreCookies":false,"settingSendCookies":false,"settingDisableRenderRequestBody":false,"settingEncodeUrl":false,"settingRebuildPath":true,"settingFollowRedirects":"global","_type":"request"},{"_id":"fld_7f64bd90a38b40599892e1bf47045de6","parentId":"wrk_12518d25141b449299b71e627ff054de","modified":1611432430305,"created":1611432430305,"name":"Characters","description":"","environment":{},"environmentPropertyOrder":null,"metaSortKey":-1611432430305,"_type":"request_group"},{"_id":"wrk_12518d25141b449299b71e627ff054de","parentId":null,"modified":1611432373645,"created":1611432373645,"name":"Dextra-MakeMagic","description":"","scope":null,"_type":"workspace"},{"_id":"req_cc9810cc567e4725a68f6ecaff8784a1","parentId":"fld_7f64bd90a38b40599892e1bf47045de6","modified":1611549496393,"created":1611432389569,"url":"{{ _.api_url }}/characters/fa80dc60-ffa7-41fd-b6df-f7c57a0a07f3","name":"Get Character","description":"  Returns json data of a specific character.\n  \n```json\n{\n  \"data\": {\n    \"id\": \"fa80dc60-ffa7-41fd-b6df-f7c57a0a07f3\",\n    \"name\": \"Hermione Granger\",\n    \"role\": \"student\",\n    \"school\": \"Hogwarts School of Witchcraft and Wizardry\",\n    \"house\": \"1760529f-6d51-4cb1-bcb1-25087fce5bde\",\n    \"patronus\": \"cat\"\n  }\n}\n```\n\n* **URL**\n\n  /characters/{id}\n\n* **Method:**\n\n  `GET`\n\n* **Success Response:**\n\n  * **Code:** 200\n \n* **Error Response:**\n\n  * **Code:** 404 Not Found -\n  If the provided id does not exists.\n  * **Standard Error Response:**\nhttps://jsonapi.org/examples/#error-objects-invalid-query-parameters","method":"GET","body":{},"parameters":[],"headers":[{"name":"Accept","value":"application/json"},{"name":"Content-Type","value":"application/json"}],"authentication":{},"metaSortKey":-1611432425471.5,"isPrivate":false,"settingStoreCookies":true,"settingSendCookies":true,"settingDisableRenderRequestBody":false,"settingEncodeUrl":true,"settingRebuildPath":true,"settingFollowRedirects":"global","_type":"request"},{"_id":"req_6f821a34057b4d38824d3b6fede56240","parentId":"fld_7f64bd90a38b40599892e1bf47045de6","modified":1611549637023,"created":1611432399698,"url":"{{ _.api_url }}/characters","name":"Create Character","description":"  Store a character in the database.\n  The return will be the newly created character stored information.\n  \nInput:\n```json\n{\n  \"data\": {\n    \"name\": \"Hermione Granger\",\n    \"role\": \"student\",\n    \"school\": \"Hogwarts School of Witchcraft and Wizardry\",\n    \"house\": \"1760529f-6d51-4cb1-bcb1-25087fce5bde\",\n    \"patronus\": \"cat\"\n  }\n}\n```\n\nOutput:\n```json\n{\n  \"data\": {\n    \"id\": \"17605asf-6d51-4dd1-bcb1-25087fce5bde\",\n    \"name\": \"Hermione Granger\",\n    \"role\": \"student\",\n    \"school\": \"Hogwarts School of Witchcraft and Wizardry\",\n    \"house\": \"1760529f-6d51-4cb1-bcb1-25087fce5bde\",\n    \"patronus\": \"cat\"\n  }\n}\n```\n\n* **URL**\n\n  /characters\n\n* **Method:**\n\n  `POST`\n\n* **Success Response:**\n\n  * **Code:** 201\n \n* **Error Response:**\n\n  * **Code:** 422 Unprocessable Entity -\n  If any provided value is invalid.\n  \n* **Standard Error Response:**\nhttps://jsonapi.org/examples/#error-objects-invalid-query-parameters","method":"POST","body":{"mimeType":"application/json","text":"{\n    \"name\": \"Harry Potter\",\n    \"role\": \"student\",\n    \"school\": \"Hogwarts School of Witchcraft and Wizardry\",\n    \"house\": \"1760529f-6d51-4cb1-bcb1-25087fce5bde\",\n    \"patronus\": \"stag\"\n}"},"parameters":[],"headers":[{"name":"Accept","value":"application/json"},{"name":"Content-Type","value":"application/json"}],"authentication":{},"metaSortKey":-1611432425459,"isPrivate":false,"settingStoreCookies":true,"settingSendCookies":true,"settingDisableRenderRequestBody":false,"settingEncodeUrl":true,"settingRebuildPath":true,"settingFollowRedirects":"global","_type":"request"},{"_id":"req_3f97ceb7307a4b2fae7f84bad9957ca3","parentId":"fld_7f64bd90a38b40599892e1bf47045de6","modified":1611549622258,"created":1611432413199,"url":"{{ _.api_url }}/characters/fa80dc60-ffa7-41fd-b6df-f7c57a0ad7f3","name":"Update Character","description":"  Update a character in the database.\n  The return will be the update character information.\n  \nInput:\n```json\n{\n  \"data\": {\n    \"id\": \"17605asf-6d51-4dd1-bcb1-25087fce5bde\",\n    \"name\": \"Hermione Diva\",\n    \"role\": \"student\",\n    \"school\": \"Hogwarts School of Witchcraft and Wizardry\",\n    \"house\": \"1760529f-6d51-4cb1-bcb1-25087fce5bde\",\n    \"patronus\": \"cat\"\n  }\n}\n```\n\nOutput:\n```json\n{\n  \"data\": {\n    \"id\": \"17605asf-6d51-4dd1-bcb1-25087fce5bde\",\n    \"name\": \"Hermione Diva\",\n    \"role\": \"student\",\n    \"school\": \"Hogwarts School of Witchcraft and Wizardry\",\n    \"house\": \"1760529f-6d51-4cb1-bcb1-25087fce5bde\",\n    \"patronus\": \"cat\"\n  }\n}\n```\n\n* **URL**\n\n  /characters/{ID}\n\n* **Method:**\n\n  `PATCH`\n\n* **Success Response:**\n\n  * **Code:** 200\n \n* **Error Response:**\n\n  * **Code:** 422 Unprocessable Entity -\n  If any provided value is invalid.\n  \n  OR\n  \n   * **Code:** 404 Not Found -\n  If the provided character ID is not found on the database.\n  \n* **Standard Error Response:**\nhttps://jsonapi.org/examples/#error-objects-invalid-query-parameters","method":"PATCH","body":{"mimeType":"application/json","text":"{\n    \"name\": \"Hermione Granger\",\n    \"role\": \"student\",\n    \"school\": \"Hogwarts School of Witchcraft and Wizardry\",\n    \"house\": \"1760529f-6d51-4cb1-bcb1-25087fce5bde\",\n    \"patronus\": \"cat\"\n}"},"parameters":[],"headers":[{"name":"Accept","value":"application/json"},{"name":"Content-Type","value":"application/json"}],"authentication":{},"metaSortKey":-1611432425446.5,"isPrivate":false,"settingStoreCookies":true,"settingSendCookies":true,"settingDisableRenderRequestBody":false,"settingEncodeUrl":true,"settingRebuildPath":true,"settingFollowRedirects":"global","_type":"request"},{"_id":"req_83c51a71eedb480eb40052c089c11cc9","parentId":"fld_7f64bd90a38b40599892e1bf47045de6","modified":1611549719904,"created":1611432420488,"url":"{{ _.api_url }}/characters/aef33d01-42f2-4ebd-9549-9b3320db806f","name":"Delete Character","description":"  Remove the character from the database.\n  The return will be the update character information.\n\n* **URL**\n\n  /characters/{ID}\n\n* **Method:**\n\n  `DELETE`\n\n* **Success Response:**\n\n  * **Code:** 204\n \n* **Error Response:**\n  \n   * **Code:** 404 Not Found -\n  If the provided character ID is not found on the database.\n  \n* **Standard Error Response:**\nhttps://jsonapi.org/examples/#error-objects-invalid-query-parameters","method":"DELETE","body":{},"parameters":[],"headers":[{"name":"Accept","value":"application/json"},{"name":"Content-Type","value":"application/json"}],"authentication":{},"metaSortKey":-1611432425396.5,"isPrivate":false,"settingStoreCookies":true,"settingSendCookies":true,"settingDisableRenderRequestBody":false,"settingEncodeUrl":true,"settingRebuildPath":true,"settingFollowRedirects":"global","_type":"request"},{"_id":"env_6f376e0fd73de5888781b0c036d839dd13c26289","parentId":"wrk_12518d25141b449299b71e627ff054de","modified":1611432501621,"created":1611432373973,"name":"Base Environment","data":{},"dataPropertyOrder":{},"color":null,"isPrivate":false,"metaSortKey":1611432373973,"_type":"environment"},{"_id":"jar_6f376e0fd73de5888781b0c036d839dd13c26289","parentId":"wrk_12518d25141b449299b71e627ff054de","modified":1611432373983,"created":1611432373983,"name":"Default Jar","cookies":[],"_type":"cookie_jar"},{"_id":"spc_7175d158bf994512a8cab13a80a57e50","parentId":"wrk_12518d25141b449299b71e627ff054de","modified":1611432373659,"created":1611432373659,"fileName":"Dextra-MakeMagic","contents":"","contentType":"yaml","_type":"api_spec"},{"_id":"env_b693771c1f8b4f6eae9f74b40d9eb82c","parentId":"env_6f376e0fd73de5888781b0c036d839dd13c26289","modified":1611432555415,"created":1611432493673,"name":"Development","data":{"api_url":"localhost/api"},"dataPropertyOrder":{"&":["api_url"]},"color":null,"isPrivate":false,"metaSortKey":1611432493673,"_type":"environment"}]}